{
  "resolution": "main",
  "tree": {
    "src": "https://raw.githubusercontent.com/DefinitelyTyped/DefinitelyTyped/08ed4e9f1869e37e29514d862e0158b40e550232/express/express.d.ts",
    "raw": "github:DefinitelyTyped/DefinitelyTyped/express/express.d.ts#08ed4e9f1869e37e29514d862e0158b40e550232",
    "typings": "https://raw.githubusercontent.com/DefinitelyTyped/DefinitelyTyped/08ed4e9f1869e37e29514d862e0158b40e550232/express/express.d.ts"
  }
}
