{
  "resolution": "main",
  "tree": {
    "src": "https://raw.githubusercontent.com/DefinitelyTyped/DefinitelyTyped/56295f5058cac7ae458540423c50ac2dcf9fc711/libxmljs/libxmljs.d.ts",
    "raw": "registry:dt/libxmljs#0.14.2+20160316155526",
    "typings": "https://raw.githubusercontent.com/DefinitelyTyped/DefinitelyTyped/56295f5058cac7ae458540423c50ac2dcf9fc711/libxmljs/libxmljs.d.ts"
  }
}
